…
# There might be three cases; 

# First scenario, the Identifier return has duplication; 

sum(duplicated(tmp$IDENTIFIER)) #Indeed there are 6493 of duplication; 

# Let's find out where the duplicate is;  

 duplicated_ID_REF <- tmp$ID_REF[duplicated(tmp$IDENTIFIER)]
 duplicated_IDENTIFIER <- tmp$IDENTIFIER[duplicated(tmp$IDENTIFIER)]
 tmp[tmp$ID_REF %in% duplicated_ID_REF, ] 
 
 # A tibble: 6,493 x 10
   ID_REF IDENTIFIER GSM1588481 GSM1588485 GSM1588482 GSM1588486 GSM1588483 GSM1588487
    <dbl> <chr>           <dbl>      <dbl>      <dbl>      <dbl>      <dbl>      <dbl>
 1 7.90e6 ATAD3C           8.67       9.02       8.34       8.62       8.67       8.83
 2 7.90e6 RNF207           7.12       7.00       6.88       7.05       7.00       7.25
 3 7.90e6 LOC101930…       6.10       6.02       5.88       5.95       5.90       6.02
 4 7.90e6 LOC101930…       6.07       5.95       5.81       5.88       5.83       5.95
 5 7.90e6 PRAMEF34P        6.05       6.01       5.92       5.97       5.86       6.11
 6 7.90e6 LOC101930…       6.07       5.95       5.81       5.88       5.83       5.95
 7 7.90e6 PRAMEF17         6.18       6.08       5.85       6.08       5.96       6.12
 8 7.90e6 KAZN             6.68       6.66       6.44       6.70       6.65       6.72
 9 7.90e6 LOC100132…       6.00       5.96       5.72       5.92       5.97       6.09
10 7.90e6 RNVU1-17        12.4       12.9       12.0       12.8       12.8       12.3 
# … with 6,483 more rows, and 2 more variables: GSM1588484 <dbl>, GSM1588488 <dbl>
…
