…
GEO_Unique_IDENTIFIER <-unique(tmp$IDENTIFIER) #26804 IDENTIFIERS which are also
GEO_Unique_IDENTIFIER                         #potential HGNC symbol have been                                                 #retrived

#33297 - 26804 = 6493 of dulications; it can be confirmed with following function

sum(duplicated(tmp$IDENTIFIER)) #Indeed there are 6493 of duplication; 

# Let's find out where the duplicate is and remove them;  

 duplicated_IDENTIFIER <- tmp$IDENTIFIER[duplicated(tmp$IDENTIFIER)]
 duplicated_IDENTIFIER
 tmp[tmp$IDENTIFIER %in% duplicated_IDENTIFIER, ] 
 
 # A tibble: 7,826 x 10
   ID_REF IDENTIFIER GSM1588481 GSM1588485 GSM1588482 GSM1588486 GSM1588483
    <dbl> <chr>           <dbl>      <dbl>      <dbl>      <dbl>      <dbl>
 1 7.90e6 OR4F17           5.75       5.82       5.58       5.69       5.62
 2 7.90e6 LOC100134…       7.06       7.06       7.26       7.22       7.23
 3 7.90e6 OR4F29           6.91       6.31       6.44       6.49       6.47
 4 7.90e6 M37726           9.30       9.17       8.06       8.77       9.64
 5 7.90e6 LOC100287…       7.45       7.16       7.10       7.08       7.05
 6 7.90e6 ATAD3C           7.39       7.52       7.00       7.26       7.41
 7 7.90e6 ATAD3C           8.67       9.02       8.34       8.62       8.67
 8 7.90e6 SSU72            6.73       6.76       6.55       6.73       6.66
 9 7.90e6 FAAP20           6.64       6.60       6.52       6.51       6.58
10 7.90e6 MORN1            6.63       6.66       6.38       6.67       6.71
# … with 7,816 more rows, and 3 more variables: GSM1588487 <dbl>,
#   GSM1588484 <dbl>, GSM1588488 <dbl>
…
